13
build/board_driver_i2c.o 0
build/board_driver_led.o 4
187 1592aab1963d99d1 PREVAILING_DEF_IRONLY LED_pulse
199 1592aab1963d99d1 PREVAILING_DEF_IRONLY ledKeepValue
211 1592aab1963d99d1 PREVAILING_DEF_IRONLY ledDirection
214 1592aab1963d99d1 PREVAILING_DEF_IRONLY ledTargetValue
build/board_driver_pmic.o 0
build/board_driver_jtag.o 0
build/board_driver_serial.o 7
1308 c19223377ef4d37b PREVAILING_DEF_IRONLY uart_basic_init
1312 c19223377ef4d37b PREVAILING_DEF_IRONLY uart_disable
1317 c19223377ef4d37b PREVAILING_DEF_IRONLY uart_write_byte
1321 c19223377ef4d37b PREVAILING_DEF_IRONLY uart_read_byte
1336 c19223377ef4d37b PREVAILING_DEF_IRONLY uart_drv_error_flag
1327 c19223377ef4d37b PREVAILING_DEF_IRONLY uart_write_buffer_polled
1329 c19223377ef4d37b PREVAILING_DEF_IRONLY uart_read_buffer_polled
build/board_driver_usb.o 14
1407 f129395ab3d83eb8 PREVAILING_DEF_IRONLY USB_IsConfigured
1501 f129395ab3d83eb8 PREVAILING_DEF_IRONLY usb_endpoint_table
1496 f129395ab3d83eb8 PREVAILING_DEF_IRONLY udd_ep_out_cache_buffer
1505 f129395ab3d83eb8 PREVAILING_DEF_IRONLY udd_ep_in_cache_buffer
1418 f129395ab3d83eb8 PREVAILING_DEF_IRONLY USB_Open
1421 f129395ab3d83eb8 PREVAILING_DEF_IRONLY USB_Init
1428 f129395ab3d83eb8 PREVAILING_DEF_IRONLY USB_Write
1434 f129395ab3d83eb8 PREVAILING_DEF_IRONLY USB_Read
1436 f129395ab3d83eb8 PREVAILING_DEF_IRONLY USB_Read_blocking
1441 f129395ab3d83eb8 PREVAILING_DEF_IRONLY USB_SendStall
1445 f129395ab3d83eb8 PREVAILING_DEF_IRONLY USB_SendZlp
1450 f129395ab3d83eb8 PREVAILING_DEF_IRONLY USB_SetAddress
1452 f129395ab3d83eb8 PREVAILING_DEF_IRONLY USB_Configure
1456 f129395ab3d83eb8 RESOLVED_IR sam_ba_usb_CDC_Enumerate
build/board_init.o 2
310 720c85a3b7e8fbbd PREVAILING_DEF_IRONLY board_init
319 720c85a3b7e8fbbd PREVAILING_DEF_IRONLY g_interrupt_enabled
build/board_startup.o 14
187 a748834efd650bb8 PREVAILING_DEF_IRONLY NMI_Handler
189 a748834efd650bb8 PREVAILING_DEF_IRONLY HardFault_Handler
191 a748834efd650bb8 PREVAILING_DEF_IRONLY SVC_Handler
193 a748834efd650bb8 PREVAILING_DEF_IRONLY PendSV_Handler
195 a748834efd650bb8 PREVAILING_DEF_IRONLY_EXP Reset_Handler
283 a748834efd650bb8 PREVAILING_DEF_IRONLY exception_table
212 a748834efd650bb8 RESOLVED_EXEC __data_start__
214 a748834efd650bb8 RESOLVED_EXEC __data_end__
216 a748834efd650bb8 RESOLVED_EXEC __etext
218 a748834efd650bb8 RESOLVED_EXEC __bss_start__
220 a748834efd650bb8 RESOLVED_EXEC __bss_end__
285 a748834efd650bb8 UNDEF __StackTop
197 a748834efd650bb8 RESOLVED_IR SysTick_Handler
200 a748834efd650bb8 RESOLVED_IR main
build/main.o 12
1433 96336cd3c0324761 PREVAILING_DEF_IRONLY pulSketch_Start_Address
319 96336cd3c0324761 PREVAILING_DEF main
321 96336cd3c0324761 PREVAILING_DEF_IRONLY SysTick_Handler
1429 96336cd3c0324761 UNDEF __sketch_vectors_ptr
323 96336cd3c0324761 RESOLVED_IR sam_ba_monitor_run
327 96336cd3c0324761 RESOLVED_IR sam_ba_monitor_init
329 96336cd3c0324761 RESOLVED_IR serial_sharp_received
1418 96336cd3c0324761 RESOLVED_IR usb_init
1420 96336cd3c0324761 RESOLVED_IR serial_open
1422 96336cd3c0324761 RESOLVED_IR board_init
1424 96336cd3c0324761 RESOLVED_IR sam_ba_monitor_sys_tick
1427 96336cd3c0324761 RESOLVED_IR LED_pulse
build/sam_ba_usb.o 13
1355 b9853723cd4ef0f PREVAILING_DEF_IRONLY usb_init
1415 b9853723cd4ef0f PREVAILING_DEF_IRONLY sam_ba_cdc
1361 b9853723cd4ef0f PREVAILING_DEF_IRONLY USB_SendString
1365 b9853723cd4ef0f PREVAILING_DEF_IRONLY sam_ba_usb_CDC_Enumerate
1440 b9853723cd4ef0f RESOLVED_IR udd_ep_out_cache_buffer
1417 b9853723cd4ef0f RESOLVED_IR line_coding
1370 b9853723cd4ef0f RESOLVED_IR USB_Open
1373 b9853723cd4ef0f RESOLVED_IR USB_Init
1380 b9853723cd4ef0f RESOLVED_IR USB_Write
1402 b9853723cd4ef0f RESOLVED_IR USB_SendStall
1406 b9853723cd4ef0f RESOLVED_IR USB_SendZlp
1408 b9853723cd4ef0f RESOLVED_IR USB_Configure
1413 b9853723cd4ef0f RESOLVED_IR USB_SetAddress
build/sam_ba_cdc.o 11
1304 db8d155ba7b44846 PREVAILING_DEF_IRONLY cdc_putc
1307 db8d155ba7b44846 PREVAILING_DEF_IRONLY cdc_getc
1315 db8d155ba7b44846 PREVAILING_DEF_IRONLY cdc_is_rx_ready
1320 db8d155ba7b44846 PREVAILING_DEF_IRONLY cdc_write_buf
1325 db8d155ba7b44846 PREVAILING_DEF_IRONLY cdc_read_buf
1327 db8d155ba7b44846 PREVAILING_DEF_IRONLY cdc_read_buf_xmd
1373 db8d155ba7b44846 PREVAILING_DEF_IRONLY line_coding
1357 db8d155ba7b44846 RESOLVED_IR sam_ba_cdc
1339 db8d155ba7b44846 RESOLVED_IR USB_Read
1348 db8d155ba7b44846 RESOLVED_IR USB_Write
1355 db8d155ba7b44846 RESOLVED_IR USB_IsConfigured
build/sam_ba_monitor.o 41
402 d7e335131052b55 PREVAILING_DEF_IRONLY txLEDPulse
431 d7e335131052b55 PREVAILING_DEF_IRONLY ptr_monitor_if
433 d7e335131052b55 PREVAILING_DEF_IRONLY rxLEDPulse
303 d7e335131052b55 PREVAILING_DEF_IRONLY sam_ba_monitor_init
436 d7e335131052b55 PREVAILING_DEF_IRONLY uart_if
440 d7e335131052b55 PREVAILING_DEF_IRONLY b_sam_ba_interface_usart
442 d7e335131052b55 PREVAILING_DEF_IRONLY usbcdc_if
308 d7e335131052b55 PREVAILING_DEF_IRONLY sam_ba_putdata_term
444 d7e335131052b55 PREVAILING_DEF_IRONLY b_terminal_mode
310 d7e335131052b55 PREVAILING_DEF_IRONLY call_applet
447 d7e335131052b55 PREVAILING_DEF_IRONLY sp
390 d7e335131052b55 PREVAILING_DEF_IRONLY data
449 d7e335131052b55 PREVAILING_DEF_IRONLY length
451 d7e335131052b55 PREVAILING_DEF_IRONLY ptr
453 d7e335131052b55 PREVAILING_DEF_IRONLY i
455 d7e335131052b55 PREVAILING_DEF_IRONLY command
388 d7e335131052b55 PREVAILING_DEF_IRONLY current_number
457 d7e335131052b55 PREVAILING_DEF_IRONLY u32tmp
459 d7e335131052b55 PREVAILING_DEF_IRONLY ptr_data
461 d7e335131052b55 PREVAILING_DEF_IRONLY j
386 d7e335131052b55 PREVAILING_DEF_IRONLY RomBOOT_Version
383 d7e335131052b55 PREVAILING_DEF_IRONLY RomBOOT_ExtendedCapabilities
463 d7e335131052b55 PREVAILING_DEF_IRONLY PAGE_SIZE
465 d7e335131052b55 PREVAILING_DEF_IRONLY MAX_FLASH
315 d7e335131052b55 PREVAILING_DEF_IRONLY sam_ba_monitor_sys_tick
317 d7e335131052b55 PREVAILING_DEF_IRONLY sam_ba_monitor_run
491 d7e335131052b55 PREVAILING_DEF_IRONLY PAGES
321 d7e335131052b55 RESOLVED_IR cdc_putc
324 d7e335131052b55 RESOLVED_IR cdc_getc
332 d7e335131052b55 RESOLVED_IR cdc_is_rx_ready
334 d7e335131052b55 RESOLVED_IR cdc_write_buf
336 d7e335131052b55 RESOLVED_IR cdc_read_buf
338 d7e335131052b55 RESOLVED_IR cdc_read_buf_xmd
340 d7e335131052b55 RESOLVED_IR serial_putc
343 d7e335131052b55 RESOLVED_IR serial_getc
346 d7e335131052b55 RESOLVED_IR serial_is_rx_ready
348 d7e335131052b55 RESOLVED_IR serial_putdata
350 d7e335131052b55 RESOLVED_IR serial_getdata
352 d7e335131052b55 RESOLVED_IR serial_putdata_xmd
354 d7e335131052b55 RESOLVED_IR serial_getdata_xmd
359 d7e335131052b55 RESOLVED_IR serial_add_crc
build/sam_ba_serial.o 26
1311 e36c4e24f95dccfd PREVAILING_DEF_IRONLY serial_open
1395 e36c4e24f95dccfd PREVAILING_DEF_IRONLY b_sharp_received
1397 e36c4e24f95dccfd PREVAILING_DEF_IRONLY idx_rx_read
1399 e36c4e24f95dccfd PREVAILING_DEF_IRONLY idx_rx_write
1401 e36c4e24f95dccfd PREVAILING_DEF_IRONLY idx_tx_read
1403 e36c4e24f95dccfd PREVAILING_DEF_IRONLY idx_tx_write
1405 e36c4e24f95dccfd PREVAILING_DEF_IRONLY error_timeout
1313 e36c4e24f95dccfd PREVAILING_DEF_IRONLY serial_close
1317 e36c4e24f95dccfd PREVAILING_DEF_IRONLY serial_putc
1325 e36c4e24f95dccfd PREVAILING_DEF_IRONLY serial_is_rx_ready
1328 e36c4e24f95dccfd PREVAILING_DEF_IRONLY serial_getc
1333 e36c4e24f95dccfd PREVAILING_DEF_IRONLY serial_sharp_received
1335 e36c4e24f95dccfd PREVAILING_DEF_IRONLY serial_readc
1413 e36c4e24f95dccfd PREVAILING_DEF_IRONLY buffer_rx_usart
1340 e36c4e24f95dccfd PREVAILING_DEF_IRONLY serial_putdata
1345 e36c4e24f95dccfd PREVAILING_DEF_IRONLY serial_getdata
1350 e36c4e24f95dccfd PREVAILING_DEF_IRONLY serial_add_crc
1424 e36c4e24f95dccfd PREVAILING_DEF_IRONLY size_of_data
1426 e36c4e24f95dccfd PREVAILING_DEF_IRONLY mode_of_transfer
1357 e36c4e24f95dccfd PREVAILING_DEF_IRONLY serial_putdata_xmd
1373 e36c4e24f95dccfd PREVAILING_DEF_IRONLY serial_getdata_xmd
1428 e36c4e24f95dccfd PREVAILING_DEF_IRONLY buffer_tx_usart
1379 e36c4e24f95dccfd RESOLVED_IR uart_basic_init
1383 e36c4e24f95dccfd RESOLVED_IR uart_disable
1388 e36c4e24f95dccfd RESOLVED_IR uart_write_byte
1392 e36c4e24f95dccfd RESOLVED_IR uart_read_byte
